{
  "project_info": {
    "project_number": "589659740545",
    "firebase_url": "https://ms-connect-app.firebaseio.com",
    "project_id": "ms-connect-app",
    "storage_bucket": "ms-connect-app.appspot.com"
  },
  "client": [
    {
      "client_info": {
        "mobilesdk_app_id": "1:589659740545:android:8121459984a342a9",
        "android_client_info": {
          "package_name": "zw.co.maweresibanda"
        }
      },
      "oauth_client": [
        {
          "client_id": "589659740545-k34nt7tv593a4c19pofdp4qmvn1cvt6p.apps.googleusercontent.com",
          "client_type": 3
        },
        {
          "client_id": "589659740545-bv0pue7h6o2ekh0lhl324agfauqscpcs.apps.googleusercontent.com",
          "client_type": 3
        }
      ],
      "api_key": [
        {
          "current_key": "AIzaSyDPZ3-I2uK18tYoLXsTK7GIpMPy1vP9shY"
        }
      ],
      "services": {
        "analytics_service": {
          "status": 1
        },
        "appinvite_service": {
          "status": 1,
          "other_platform_oauth_client": []
        },
        "ads_service": {
          "status": 2
        }
      }
    }
  ],
  "configuration_version": "1"
}